%YAML 1.1
%TAG !u! tag:unity3d.com,2011:
--- !u!114 &11400000
MonoBehaviour:
  m_ObjectHideFlags: 0
  m_CorrespondingSourceObject: {fileID: 0}
  m_PrefabInstance: {fileID: 0}
  m_PrefabAsset: {fileID: 0}
  m_GameObject: {fileID: 0}
  m_Enabled: 1
  m_EditorHideFlags: 0
  m_Script: {fileID: 11500000, guid: e00ef437bd4d71449b0f20a4a220d44a, type: 3}
  m_Name: ItemData
  m_EditorClassIdentifier: 
  items:
  - icon: {fileID: 21300000, guid: 2f1eaeeaad36ee5469eff7ff158f37ba, type: 3}
    item_name: Scale Armor
    description: Uses Scales of a salamander
    item_class: 0
    slot: 2
    damage: 0
    defence: 5
    strength: 3
    agility: 2
    intel: 0
  - icon: {fileID: 21300000, guid: 2f1eaeeaad36ee5469eff7ff158f37ba, type: 3}
    item_name: Scale Armor +1
    description: Uses Scales of a salamander
    item_class: 1
    slot: 2
    damage: 0
    defence: 6
    strength: 3
    agility: 2
    intel: 0
  - icon: {fileID: 21300000, guid: 2f1eaeeaad36ee5469eff7ff158f37ba, type: 3}
    item_name: Scale Armor +2
    description: Uses Scales of a salamander
    item_class: 2
    slot: 2
    damage: 0
    defence: 7
    strength: 3
    agility: 2
    intel: 0
  - icon: {fileID: 21300000, guid: 2f1eaeeaad36ee5469eff7ff158f37ba, type: 3}
    item_name: Scale Armor +3
    description: Uses Scales of a salamander
    item_class: 3
    slot: 2
    damage: 0
    defence: 8
    strength: 3
    agility: 2
    intel: 0
  - icon: {fileID: 21300000, guid: 2f1eaeeaad36ee5469eff7ff158f37ba, type: 3}
    item_name: Scale Armor +4
    description: Uses Scales of a salamander
    item_class: 4
    slot: 2
    damage: 0
    defence: 9
    strength: 3
    agility: 2
    intel: 0
  - icon: {fileID: 21300000, guid: 172774604c1bee84185a69041576525b, type: 3}
    item_name: Steel Axe
    description: Made by a viking blacksmith
    item_class: 0
    slot: 0
    damage: 10
    defence: 0
    strength: 4
    agility: 5
    intel: 2
  - icon: {fileID: 21300000, guid: 172774604c1bee84185a69041576525b, type: 3}
    item_name: Steel Axe +1
    description: Made by a viking blacksmith
    item_class: 1
    slot: 0
    damage: 11
    defence: 0
    strength: 4
    agility: 5
    intel: 2
  - icon: {fileID: 21300000, guid: 172774604c1bee84185a69041576525b, type: 3}
    item_name: Steel Axe +2
    description: Made by a viking blacksmith
    item_class: 2
    slot: 0
    damage: 12
    defence: 0
    strength: 4
    agility: 5
    intel: 2
  - icon: {fileID: 21300000, guid: 172774604c1bee84185a69041576525b, type: 3}
    item_name: Steel Axe +3
    description: Made by a viking blacksmith
    item_class: 3
    slot: 0
    damage: 13
    defence: 0
    strength: 4
    agility: 5
    intel: 2
  - icon: {fileID: 21300000, guid: 172774604c1bee84185a69041576525b, type: 3}
    item_name: Steel Axe +4
    description: Made by a viking blacksmith
    item_class: 4
    slot: 0
    damage: 14
    defence: 0
    strength: 4
    agility: 5
    intel: 2
  - icon: {fileID: 21300000, guid: 5d7061fc7da05ce44add317708ec7215, type: 3}
    item_name: Wooden Bow
    description: Trademark weapon of the elves
    item_class: 0
    slot: 0
    damage: 9
    defence: 1
    strength: 3
    agility: 6
    intel: 4
  - icon: {fileID: 21300000, guid: 5d7061fc7da05ce44add317708ec7215, type: 3}
    item_name: Wooden Bow +1
    description: Trademark weapon of the elves
    item_class: 1
    slot: 0
    damage: 10
    defence: 1
    strength: 3
    agility: 6
    intel: 4
  - icon: {fileID: 21300000, guid: 5d7061fc7da05ce44add317708ec7215, type: 3}
    item_name: Wooden Bow +2
    description: Trademark weapon of the elves
    item_class: 2
    slot: 0
    damage: 11
    defence: 1
    strength: 3
    agility: 6
    intel: 4
  - icon: {fileID: 21300000, guid: 5d7061fc7da05ce44add317708ec7215, type: 3}
    item_name: Wooden Bow +3
    description: Trademark weapon of the elves
    item_class: 3
    slot: 0
    damage: 12
    defence: 1
    strength: 3
    agility: 6
    intel: 4
  - icon: {fileID: 21300000, guid: 5d7061fc7da05ce44add317708ec7215, type: 3}
    item_name: Wooden Bow +4
    description: Trademark weapon of the elves
    item_class: 4
    slot: 0
    damage: 13
    defence: 1
    strength: 3
    agility: 6
    intel: 4
  - icon: {fileID: 21300000, guid: e420c5bc93cb2604695a893500c897e3, type: 3}
    item_name: Hunting boots
    description: The hunters choice
    item_class: 0
    slot: 3
    damage: 0
    defence: 4
    strength: 2
    agility: 7
    intel: 2
  - icon: {fileID: 21300000, guid: e420c5bc93cb2604695a893500c897e3, type: 3}
    item_name: Hunting boots +1
    description: The hunters choice
    item_class: 1
    slot: 3
    damage: 0
    defence: 5
    strength: 2
    agility: 7
    intel: 2
  - icon: {fileID: 21300000, guid: e420c5bc93cb2604695a893500c897e3, type: 3}
    item_name: Hunting boots +2
    description: The hunters choice
    item_class: 2
    slot: 3
    damage: 0
    defence: 6
    strength: 2
    agility: 7
    intel: 2
  - icon: {fileID: 21300000, guid: e420c5bc93cb2604695a893500c897e3, type: 3}
    item_name: Hunting boots +3
    description: The hunters choice
    item_class: 3
    slot: 3
    damage: 0
    defence: 7
    strength: 2
    agility: 7
    intel: 2
  - icon: {fileID: 21300000, guid: e420c5bc93cb2604695a893500c897e3, type: 3}
    item_name: Hunting boots +4
    description: The hunters choice
    item_class: 4
    slot: 3
    damage: 0
    defence: 8
    strength: 2
    agility: 7
    intel: 2
  - icon: {fileID: 21300000, guid: fd6e4fc32c78509458fc45ea4a478ba8, type: 3}
    item_name: Iron Helmet
    description: Standard army helmet
    item_class: 0
    slot: 1
    damage: 0
    defence: 3
    strength: 2
    agility: 2
    intel: 3
  - icon: {fileID: 21300000, guid: fd6e4fc32c78509458fc45ea4a478ba8, type: 3}
    item_name: Iron Helmet +1
    description: Standard army helmet
    item_class: 1
    slot: 1
    damage: 0
    defence: 4
    strength: 2
    agility: 2
    intel: 3
  - icon: {fileID: 21300000, guid: fd6e4fc32c78509458fc45ea4a478ba8, type: 3}
    item_name: Iron Helmet +2
    description: Standard army helmet
    item_class: 2
    slot: 1
    damage: 0
    defence: 5
    strength: 2
    agility: 2
    intel: 3
  - icon: {fileID: 21300000, guid: fd6e4fc32c78509458fc45ea4a478ba8, type: 3}
    item_name: Iron Helmet +3
    description: Standard army helmet
    item_class: 3
    slot: 1
    damage: 0
    defence: 6
    strength: 2
    agility: 2
    intel: 3
  - icon: {fileID: 21300000, guid: fd6e4fc32c78509458fc45ea4a478ba8, type: 3}
    item_name: Iron Helmet +4
    description: Standard army helmet
    item_class: 4
    slot: 1
    damage: 0
    defence: 7
    strength: 2
    agility: 2
    intel: 3
